C:\Users\PERO GROUPE\Documents\Projet Sineb\sineb-full-apis\gateway-service\src\main\java\bj\sineb\gatewayservice\utils\JwtUtils.java
C:\Users\PERO GROUPE\Documents\Projet Sineb\sineb-full-apis\gateway-service\src\main\java\bj\sineb\gatewayservice\GatewayServiceApplication.java
C:\Users\PERO GROUPE\Documents\Projet Sineb\sineb-full-apis\gateway-service\src\main\java\bj\sineb\gatewayservice\filters\AuthenticationFilter.java
C:\Users\PERO GROUPE\Documents\Projet Sineb\sineb-full-apis\gateway-service\src\main\java\bj\sineb\gatewayservice\filters\RouterValidator.java
